NLP part04 word count use R
…
library(janeaustenr)
library(dplyr)
library(stringr)
original_books <- austen_books() %>%
  group_by(book) %>%
  mutate(linenumber = row_number(),
         chapter = cumsum(str_detect(
           text, regex("^chapter [\\divxlc]",
                       ignore_case = TRUE)
         ))) %>%
  ungroup()
original_books

## # A tibble: 73,422 x 4
##    text                  book                linenumber chapter
##    <chr>                 <fct>                    <int>   <int>
##  1 SENSE AND SENSIBILITY Sense & Sensibility          1       0
##  2 ""                    Sense & Sensibility          2       0
##  3 by Jane Austen        Sense & Sensibility          3       0
##  4 ""                    Sense & Sensibility          4       0
##  5 (1811)                Sense & Sensibility          5       0
##  6 ""                    Sense & Sensibility          6       0
##  7 ""                    Sense & Sensibility          7       0
##  8 ""                    Sense & Sensibility          8       0
##  9 ""                    Sense & Sensibility          9       0
## 10 CHAPTER 1             Sense & Sensibility         10       1
## # ... with 73,412 more rows

library(tidytext)
tidy_books <- original_books %>%
  unnest_tokens(word, text)
tidy_books

## # A tibble: 725,055 x 4
##    book                linenumber chapter word       
##    <fct>                    <int>   <int> <chr>      
##  1 Sense & Sensibility          1       0 sense      
##  2 Sense & Sensibility          1       0 and        
##  3 Sense & Sensibility          1       0 sensibility
##  4 Sense & Sensibility          3       0 by         
##  5 Sense & Sensibility          3       0 jane       
##  6 Sense & Sensibility          3       0 austen     
##  7 Sense & Sensibility          5       0 1811       
##  8 Sense & Sensibility         10       1 chapter    
##  9 Sense & Sensibility         10       1 1          
## 10 Sense & Sensibility         13       1 the        
## # ... with 725,045 more rows

data(stop_words)
tidy_books <- tidy_books %>%
  anti_join(stop_words)
tidy_books %>%
  count(word, sort = TRUE)

## # A tibble: 13,914 x 2
##    word       n
##    <chr>  <int>
##  1 miss    1855
##  2 time    1337
##  3 fanny    862
##  4 dear     822
##  5 lady     817
##  6 sir      806
##  7 day      797
##  8 emma     787
##  9 sister   727
## 10 house    699
## # ... with 13,904 more rows
…
Gutenbergr

The gutenbergr package provides access to the public domain works from theÂ Project GutenbergÂ collection. The package includes tools both for downloading books (stripping out the unhelpful header/footer information), and a complete dataset of Project Gutenberg metadata that can be used to find works of interest.Â 

library("gutenbergr")
hgwells <- gutenberg_download(c(35, 36, 5230, 159))
tidy_hgwells <- hgwells %>%
  unnest_tokens(word, text) %>%
  anti_join(stop_words)
tidy_hgwells %>%
  count(word, sort = TRUE)

## # A tibble: 11,769 x 2
##    word       n
##    <chr>  <int>
##  1 time     454
##  2 people   302
##  3 door     260
##  4 heard    249
##  5 black    232
##  6 stood    229
##  7 white    222
##  8 hand     218
##  9 kemp     213
## 10 eyes     210
## # ... with 11,759 more rows

bronte <- gutenberg_download(c(1260, 768, 969, 9182, 767))
tidy_bronte <- bronte %>%
  unnest_tokens(word, text) %>%
  anti_join(stop_words)
tidy_bronte %>%
  count(word, sort = TRUE)

## # A tibble: 23,050 x 2
##    word       n
##    <chr>  <int>
##  1 time    1065
##  2 miss     855
##  3 day      827
##  4 hand     768
##  5 eyes     713
##  6 night    647
##  7 heart    638
##  8 looked   601
##  9 door     592
## 10 half     586
## # ... with 23,040 more rows
…
