ggplot2
…
manipulation

visualization

Learn more at http://tidyr.tidyverse.org/articles/tidy-data.html.

Tidy the previous data

library(tidyverse)

(fertilityTidy <- fertilityData %>%
   gather(key = "Year", value = "Fertility", -Country) %>%
   mutate(Year = as.integer(Year)))

## # A tibble: 72 x 3
##    Country              Year Fertility
##    <fct>               <int>     <dbl>
##  1 Afghanistan          1800      7.00
##  2 Albania              1800      4.60
##  3 Algeria              1800      6.99
##  4 Angola               1800      6.93
##  5 Antigua and Barbuda  1800      5.00
##  6 Argentina            1800      6.80
##  7 Armenia              1800      7.80
##  8 Aruba                1800      5.64
##  9 Australia            1800      6.50
## 10 Austria              1800      5.10
## # ... with 62 more rows
…
class: center, middle, inverse

Layers

Iris: base dataset of R

about plants

as_tibble(iris)   ## print better

## # A tibble: 150 x 5
##    Sepal.Length Sepal.Width Petal.Length Petal.Width Species
##           <dbl>       <dbl>        <dbl>       <dbl> <fct>  
##  1         5.10        3.50         1.40       0.200 setosa 
##  2         4.90        3.00         1.40       0.200 setosa 
##  3         4.70        3.20         1.30       0.200 setosa 
##  4         4.60        3.10         1.50       0.200 setosa 
##  5         5.00        3.60         1.40       0.200 setosa 
##  6         5.40        3.90         1.70       0.400 setosa 
##  7         4.60        3.40         1.40       0.300 setosa 
##  8         5.00        3.40         1.50       0.200 setosa 
##  9         4.40        2.90         1.40       0.200 setosa 
## 10         4.90        3.10         1.50       0.100 setosa 
## # ... with 140 more rows
…
ggsave("myggplot.pdf", scale = 1/90, width = 888, height = 725)

.footnote[In R Markdown, use chunk options out.width and fig.asp.]

class: center, middle, inverse

Your turn

Use this data..

(df <- gapminder::gapminder %>%
   filter(year == 1992))

## # A tibble: 142 x 6
##    country     continent  year lifeExp       pop gdpPercap
##    <fct>       <fct>     <int>   <dbl>     <int>     <dbl>
##  1 Afghanistan Asia       1992    41.7  16317921      649.
##  2 Albania     Europe     1992    71.6   3326498     2497.
##  3 Algeria     Africa     1992    67.7  26298373     5023.
##  4 Angola      Africa     1992    40.6   8735988     2628.
##  5 Argentina   Americas   1992    71.9  33958947     9308.
##  6 Australia   Oceania    1992    77.6  17481977    23425.
##  7 Austria     Europe     1992    76.0   7914969    27042.
##  8 Bahrain     Asia       1992    72.6    529491    19036.
##  9 Bangladesh  Asia       1992    56.0 113704579      838.
## 10 Belgium     Europe     1992    76.5  10045622    25576.
## # ... with 132 more rows
…
